{
  "kind": "collectionType",
  "collectionName": "feedbacks",
  "info": {
    "singularName": "feedback",
    "pluralName": "feedbacks",
    "displayName": "feedback",
    "description": ""
  },
  "options": {
    "draftAndPublish": false
  },
  "pluginOptions": {},
  "attributes": {
    "user": {
      "type": "relation",
      "relation": "oneToOne",
      "target": "plugin::users-permissions.user",
      "mappedBy": "feedback"
    },
    "confirmed": {
      "type": "boolean"
    },
    "partyOnly": {
      "type": "boolean"
    },
    "roomNeeded": {
      "type": "string"
    },
    "amount": {
      "type": "integer"
    },
    "chat": {
      "type": "string"
    }
  }
}
